<?xml version="1.0" encoding="utf-8"?>
<!-- Generator: Adobe Illustrator 27.0.1, SVG Export Plug-In . SVG Version: 6.00 Build 0)  -->
<svg version="1.1" id="Vrstva_1" xmlns="http://www.w3.org/2000/svg" xmlns:xlink="http://www.w3.org/1999/xlink" x="0px" y="0px"
	 viewBox="0 0 314 115.5" style="enable-background:new 0 0 314 115.5;" xml:space="preserve">
<style type="text/css">
	.st0{fill:#FFFFFF;}
	.st1{clip-path:url(#SVGID_00000112618404860036381130000010437014036495611823_);fill:#FFFFFF;}
</style>
<polygon class="st0" points="160.1,46 148.2,46 148.2,77 139.5,77 139.5,46 127.6,46 127.6,38.5 160.1,38.5 "/>
<rect x="169.8" y="38.5" class="st0" width="8.8" height="38.5"/>
<g>
	<defs>
		<rect id="SVGID_1_" width="314" height="115.5"/>
	</defs>
	<clipPath id="SVGID_00000147199670848966852140000011834107000974185094_">
		<use xlink:href="#SVGID_1_"  style="overflow:visible;"/>
	</clipPath>
	<path style="clip-path:url(#SVGID_00000147199670848966852140000011834107000974185094_);fill:#FFFFFF;" d="M275.5,57.7
		c0,11.7-9,20.2-20.2,20.2c-11.2,0-20.3-8.5-20.3-20.2c0-11.8,9.1-20.2,20.3-20.2C266.5,37.5,275.5,46,275.5,57.7 M243.8,57.7
		c0,7.2,5.2,12.3,11.4,12.3c6.3,0,11.4-5.1,11.4-12.3c0-7.3-5.1-12.3-11.4-12.3C249,45.4,243.8,50.5,243.8,57.7"/>
	<path style="clip-path:url(#SVGID_00000147199670848966852140000011834107000974185094_);fill:#FFFFFF;" d="M123.3,57.7
		c0,11.7-9,20.2-20.2,20.2s-20.3-8.5-20.3-20.2c0-11.8,9.1-20.2,20.3-20.2S123.3,46,123.3,57.7 M91.6,57.7c0,7.2,5.2,12.3,11.4,12.3
		c6.3,0,11.4-5.1,11.4-12.3c0-7.3-5.1-12.3-11.4-12.3C96.8,45.4,91.6,50.5,91.6,57.7"/>
	<path style="clip-path:url(#SVGID_00000147199670848966852140000011834107000974185094_);fill:#FFFFFF;" d="M64.9,38.5v24
		c0,0-8.5-11.8-12-16.6c-1.1-1.5-2.1-2.9-3.1-4C48,40,44.4,37,38.5,38.5V77h8.8V53c0,0,8.5,11.8,12,16.6c1.1,1.5,2.1,2.9,3.1,4
		c1.8,1.9,5.4,4.9,11.3,3.4V38.5H64.9z"/>
	<path style="clip-path:url(#SVGID_00000147199670848966852140000011834107000974185094_);fill:#FFFFFF;" d="M217.1,38.5v24
		c0,0-8.5-11.8-12-16.6c-1.1-1.5-2.1-2.9-3.1-4c-1.8-1.9-5.4-4.9-11.3-3.4V77h8.8V53c0,0,8.5,11.8,12,16.6c1.1,1.5,2.1,2.9,3.1,4
		c1.8,1.9,5.4,4.9,11.3,3.4V38.5H217.1z"/>
</g>
</svg>
